sync(src, dst){
	while(src.EOD!){
		checkHandler(iterator.src, dst)
		iterator.src +1;
	}
}

copyHandler(src, dst)
{
	system(delete dst+file.Name)
	system(cp scr+file.Name,dst+file.Name)
}

checkHandler(file, dst)
{
	int fileExist = 0
	while(dst.EOD!){
		checkedFile = iterator.dst
		if(checkedFile.Name = file.Name){
			if(checkedFile.Size != file.Size){
				copyHandler(file.Path, dst)
			}
			else{
				if(checkedFile.Date != file.Date){
					copyHandler(file.Path, dst)
				}
			}
			fileExist +1;
		}
		iterator.dst +1;
	}
	if(fileExist = 0){
		copyHandler(file.Path, dst)
	}
}